…
```
So I definitely got info for the years ending 2011, 2012, and 2013.  Let's double check to see if our tempermental finreportr packages gives us this same info if we call it again:

```r
dnkn2 <- GetIncome('DNKN',2013)
dnkn2 <- tbl_df(dnkn2) %>% mutate(endDate=as.Date(endDate,format="%Y-%m-%d"),endyear=year(endDate)) %>%
            filter(endyear==2012)
            # A tibble: 54 x 6
   Metric                                            Units Amount    startDate  endDate    endyear
   <chr>                                             <chr> <chr>     <chr>      <date>       <int>
 1 Franchise Revenue                                 usd   418940000 2012-01-01 2012-12-29    2012
 2 Operating Leases, Income Statement, Lease Revenue usd   96816000  2012-01-01 2012-12-29    2012
 3 Sales Revenue, Goods, Net                         usd   94659000  2012-01-01 2012-12-29    2012
 4 Revenue from Franchisor Owned Outlets             usd   22922000  2012-01-01 2012-12-29    2012
 5 Other Revenue, Net                                usd   24844000  2012-01-01 2012-12-29    2012
 6 Revenues                                          usd   152372000 2012-01-01 2012-03-31    2012
 7 Revenues                                          usd   172387000 2012-04-01 2012-06-30    2012
 8 Revenues                                          usd   171719000 2012-07-01 2012-09-29    2012
 9 Revenues                                          usd   161703000 2012-09-30 2012-12-29    2012
10 Revenues                                          usd   658181000 2012-01-01 2012-12-29    2012
# ... with 44 more rows
…
